aula 4/ex 1/simulation/qsim/exercicio.msim.vcd
$comment
	File created using the following command:
		vcd file exercicio.msim.vcd -direction
$end
$date
	Thu Aug 25 15:15:23 2022
$end
$version
	ModelSim Version 10.5b
$end
$timescale
	1ps
$end

$scope module exercicio_vlg_vec_tst $end
$var reg 1 ! IN1 $end
$var reg 1 " IN2 $end
$var reg 1 # IN3 $end
$var wire 1 $ OUT1 $end
$var wire 1 % OUT2 $end
$var wire 1 & OUT3 $end

$scope module i1 $end
$var wire 1 ' gnd $end
$var wire 1 ( vcc $end
$var wire 1 ) unknown $end
$var tri1 1 * devclrn $end
$var tri1 1 + devpor $end
$var tri1 1 , devoe $end
$var wire 1 - ~QUARTUS_CREATED_GND~I_combout $end
$var wire 1 . IN1~input_o $end
$var wire 1 / IN2~input_o $end
$var wire 1 0 inst~combout $end
$var wire 1 1 IN3~input_o $end
$var wire 1 2 inst5~combout $end
$var wire 1 3 inst2~combout $end
$upscope $end
$upscope $end
$enddefinitions $end
#0
$dumpvars
0!
1"
0#
0$
1%
1&
0'
1(
x)
1*
1+
1,
0-
0.
1/
10
01
12
03
$end
#50000
1!
1.
13
02
00
0&
0%
1$
#100000
0"
0!
0/
0.
03
0$
#150000
1#
1!
11
1.
13
10
1&
1$
#200000
1"
0!
1/
0.
#250000
1!
1.
00
0&
#300000
0#
0"
0!
01
0/
0.
03
0$
#350000
1!
1.
12
10
1&
1%
#400000
1"
0!
1/
0.
#450000
1#
1!
11
1.
13
02
00
0&
0%
1$
