aula 3/ex 2/simulation/qsim/diagrama.msim.vcd
$comment
	File created using the following command:
		vcd file diagrama.msim.vcd -direction
$end
$date
	Wed Aug 24 16:08:25 2022
$end
$version
	ModelSim Version 10.5b
$end
$timescale
	1ps
$end

$scope module diagrama_vlg_vec_tst $end
$var reg 1 ! KEY [0:0] $end
$var wire 1 " HEX [3] $end
$var wire 1 # HEX [2] $end
$var wire 1 $ HEX [1] $end
$var wire 1 % HEX [0] $end

$scope module i1 $end
$var wire 1 & gnd $end
$var wire 1 ' vcc $end
$var wire 1 ( unknown $end
$var tri1 1 ) devclrn $end
$var tri1 1 * devpor $end
$var tri1 1 + devoe $end
$var wire 1 , ~QUARTUS_CREATED_GND~I_combout $end
$var wire 1 - KEY[0]~input_o $end
$var wire 1 . KEY[0]~inputCLKENA0_outclk $end
$var wire 1 / inst7~0_combout $end
$var wire 1 0 inst7~q $end
$var wire 1 1 inst6~q $end
$var wire 1 2 inst5~0_combout $end
$var wire 1 3 inst5~q $end
$var wire 1 4 inst4~0_combout $end
$var wire 1 5 inst4~q $end
$var wire 1 6 inst6~0_combout $end
$var wire 1 7 inst6~DUPLICATE_q $end
$upscope $end
$upscope $end
$enddefinitions $end
#0
$dumpvars
b0 !
0%
0$
0#
0"
0&
1'
x(
1)
1*
1+
0,
0-
0.
1/
00
01
02
03
04
05
06
07
$end
#50000
b1 !
1-
1.
10
1"
16
0/
#100000
b0 !
0-
0.
#150000
b1 !
1-
1.
11
17
00
0"
1#
1/
#200000
b0 !
0-
0.
#250000
b1 !
1-
1.
10
1"
06
12
0/
#300000
b0 !
0-
0.
#350000
b1 !
1-
1.
01
07
13
00
0"
1$
0#
1/
#400000
b0 !
0-
0.
#450000
b1 !
1-
1.
10
1"
16
0/
#500000
b0 !
0-
0.
#550000
b1 !
1-
1.
11
17
00
0"
1#
1/
#600000
b0 !
0-
0.
#650000
b1 !
1-
1.
10
1"
06
14
02
0/
#700000
b0 !
0-
0.
#750000
b1 !
1-
1.
01
07
15
03
00
0"
0$
1%
0#
1/
#800000
b0 !
0-
0.
#850000
b1 !
1-
1.
10
1"
04
0/
#900000
b0 !
0-
0.
#950000
b1 !
1-
1.
05
00
0"
0%
1/
