aula 2/1/simulation/qsim/somador_completo.msim.vcd
$comment
	File created using the following command:
		vcd file somador_completo.msim.vcd -direction
$end
$date
	Thu Aug 18 15:27:32 2022
$end
$version
	ModelSim Version 10.5b
$end
$timescale
	1ps
$end

$scope module somador_completo_vhd_vec_tst $end
$var wire 1 ! A $end
$var wire 1 " B $end
$var wire 1 # carry_in $end
$var wire 1 $ carry_out $end
$var wire 1 % sum $end

$scope module i1 $end
$var wire 1 & gnd $end
$var wire 1 ' vcc $end
$var wire 1 ( unknown $end
$var wire 1 ) devoe $end
$var wire 1 * devclrn $end
$var wire 1 + devpor $end
$var wire 1 , ww_devoe $end
$var wire 1 - ww_devclrn $end
$var wire 1 . ww_devpor $end
$var wire 1 / ww_A $end
$var wire 1 0 ww_B $end
$var wire 1 1 ww_carry_in $end
$var wire 1 2 ww_carry_out $end
$var wire 1 3 ww_sum $end
$var wire 1 4 \carry_out~output_o\ $end
$var wire 1 5 \sum~output_o\ $end
$var wire 1 6 \B~input_o\ $end
$var wire 1 7 \carry_in~input_o\ $end
$var wire 1 8 \A~input_o\ $end
$var wire 1 9 \carry_out~0_combout\ $end
$var wire 1 : \sum~0_combout\ $end
$upscope $end
$upscope $end
$enddefinitions $end
#0
$dumpvars
0!
0"
0#
0$
0%
0&
1'
x(
1)
1*
1+
1,
1-
1.
0/
00
01
02
03
04
05
06
07
08
09
0:
$end
#50000
1!
1/
18
1:
15
13
1%
#100000
0!
1"
0/
10
16
08
#150000
1!
1#
1/
11
17
18
19
14
12
1$
#200000
0!
0"
0/
00
06
08
09
04
02
0$
#250000
1!
1/
18
19
0:
05
14
03
12
0%
1$
#300000
0!
1"
0#
0/
10
01
07
16
08
09
1:
15
04
13
02
1%
0$
#350000
1!
1/
18
19
0:
05
14
03
12
0%
1$
#400000
0!
0"
0/
00
06
08
09
04
02
0$
#450000
1!
1#
1/
11
17
18
19
14
12
1$
#500000
0!
1"
0/
10
16
08
#550000
1!
1/
18
1:
15
13
1%
#600000
0!
0"
0#
0/
00
01
07
06
08
09
0:
05
04
03
02
0%
0$
#650000
1!
1/
18
1:
15
13
1%
#700000
0!
1"
0/
10
16
08
#750000
1!
1#
1/
11
17
18
19
14
12
1$
#800000
0!
0"
0/
00
06
08
09
04
02
0$
#850000
1!
1/
18
19
0:
05
14
03
12
0%
1$
#900000
0!
1"
0#
0/
10
01
07
16
08
09
1:
15
04
13
02
1%
0$
#950000
1!
1/
18
19
0:
05
14
03
12
0%
1$
