aula 2/3/simulation/qsim/mux_vetor.msim.vcd
$comment
	File created using the following command:
		vcd file mux_vetor.msim.vcd -direction
$end
$date
	Thu Aug 18 15:51:56 2022
$end
$version
	ModelSim Version 10.5b
$end
$timescale
	1ps
$end

$scope module mux_vetor_vhd_vec_tst $end
$var wire 1 ! key [1] $end
$var wire 1 " key [0] $end
$var wire 1 # led $end
$var wire 1 $ switch [3] $end
$var wire 1 % switch [2] $end
$var wire 1 & switch [1] $end
$var wire 1 ' switch [0] $end

$scope module i1 $end
$var wire 1 ( gnd $end
$var wire 1 ) vcc $end
$var wire 1 * unknown $end
$var wire 1 + devoe $end
$var wire 1 , devclrn $end
$var wire 1 - devpor $end
$var wire 1 . ww_devoe $end
$var wire 1 / ww_devclrn $end
$var wire 1 0 ww_devpor $end
$var wire 1 1 ww_switch [3] $end
$var wire 1 2 ww_switch [2] $end
$var wire 1 3 ww_switch [1] $end
$var wire 1 4 ww_switch [0] $end
$var wire 1 5 ww_key [1] $end
$var wire 1 6 ww_key [0] $end
$var wire 1 7 ww_led $end
$var wire 1 8 \led~output_o\ $end
$var wire 1 9 \switch[2]~input_o\ $end
$var wire 1 : \key[0]~input_o\ $end
$var wire 1 ; \switch[1]~input_o\ $end
$var wire 1 < \key[1]~input_o\ $end
$var wire 1 = \switch[0]~input_o\ $end
$var wire 1 > \led~0_combout\ $end
$var wire 1 ? \switch[3]~input_o\ $end
$var wire 1 @ \led~1_combout\ $end
$upscope $end
$upscope $end
$enddefinitions $end
#0
$dumpvars
0#
0(
1)
x*
1+
1,
1-
1.
1/
10
07
08
09
0:
0;
0<
0=
0>
0?
0@
0!
0"
0$
0%
0&
0'
01
02
03
04
05
06
$end
#50000
1'
14
1=
1>
1@
18
17
1#
#100000
0'
1"
1&
04
13
16
1:
1;
0=
0>
0@
08
07
0#
#150000
1'
14
1=
#200000
0'
0"
0&
1!
1%
04
03
12
06
15
1<
0:
19
0;
0=
#250000
1'
14
1=
#300000
0'
1"
1&
04
13
16
1:
1;
0=
1>
1@
0@
18
17
08
1#
07
0#
#350000
1'
14
1=
#400000
0'
0"
0&
0!
0%
1$
04
03
02
11
06
05
0<
0:
1?
09
0;
0=
1@
0>
0@
18
17
08
1#
07
0#
#450000
1'
14
1=
1>
1@
18
17
1#
#500000
0'
1"
1&
04
13
16
1:
1;
0=
0>
0@
08
07
0#
#550000
1'
14
1=
#600000
0'
0"
0&
1!
1%
04
03
12
06
15
1<
0:
19
0;
0=
#650000
1'
14
1=
#700000
0'
1"
1&
04
13
16
1:
1;
0=
1>
1@
18
17
1#
#750000
1'
14
1=
#800000
0'
0"
0&
0!
0%
0$
04
03
02
01
06
05
0<
0:
0?
09
0;
0=
0>
0@
08
07
0#
#850000
1'
14
1=
1>
1@
18
17
1#
#900000
0'
1"
1&
04
13
16
1:
1;
0=
0>
0@
08
07
0#
#950000
1'
14
1=
